{
  "users": [
    {
      "id": 1,
      "username": "admin",
      "password": "password"
    },
    {
      "id": 2,
      "username": "rufus",
      "password": "history"
    }
  ],
  "roles": [
    {
      "id": 1,
      "name": "superuser"
    }
  ],
  "userRoles": [
    {
      "id": 1,
      "userId": 1,
      "roleId": 1
    }
  ]
}
